# Blender v2.69 (sub 0) OBJ File: ''
# www.blender.org
mtllib cube.mtl
o Cube
v 1.000000 -1.000000 -1.000000
v 1.000000 -1.000000 1.000000
v -1.000000 -1.000000 1.000000
v -1.000000 -1.000000 -1.000000
v 1.000000 1.000000 -0.999999
v 0.999999 1.000000 1.000001
v -1.000000 1.000000 1.000000
v -1.000000 1.000000 -1.000000
vt 0.666667 0.000000
vt 1.000000 0.000000
vt 1.000000 0.333333
vt 0.666667 0.333333
vt 0.000000 0.666667
vt 0.000000 0.333333
vt 0.333333 0.333334
vt 0.333333 0.666667
vt 0.333333 0.333333
vt 0.333333 0.000000
vt 0.000000 0.000000
vt 1.000000 0.666667
vt 0.666667 0.666667
usemtl Material
s off
f 1/1 2/2 3/3 4/4
f 5/5 8/6 7/7 6/8
f 1/4 5/9 6/10 2/1
f 2/6 6/11 7/10 3/9
f 3/4 7/3 8/12 4/13
f 5/9 1/4 4/13 8/8
